{
    "card" : [

 {
    "id" : 1,
    "name" : "Флюїд для обличчя для сухої шкіри",
    "price" : 630,
    "image" : "../assets/img/katalog1.png",
    "category" : "Сироватка для обличчя",
   "description" : "Lorem ipsum dolor sit amet, consectetur adipiscing elit, sed do eiusmod tempor incididunt ut labore et dolore magna aliqua. Ut enim ad minim veniam, quis nostrud exercitation ullamco laboris nisi ut aliquip ex ea commodo consequat. Duis aute irure dolor in reprehenderit in voluptate velit esse cillum dolore eu fugiat nulla pariatur. Excepteur sint occaecat cupidatat non proident, sunt in culpa qui officia deserunt mollit anim id est laborum"
},
{
    "id" : 2,
    "name" : "Антиоксидантний крем для обличчя",
    "price" : 850,
    "image" : "../assets/img/katalog2.png",
    "category" : "Крем для обличчя",
    "description" : "Lorem ipsum dolor sit amet, consectetur adipiscing elit,quis nostrud exercitation ullamco laboris nisi ut aliquip ex ea commodo consequat. Duis aute irure dolor in reprehenderit in voluptate velit esse cillum dolore eu fugiat nulla pariatur. Excepteur sint occaecat cupidatat non proident, sunt in culpa qui officia deserunt mollit anim id est laborum"

},
{
    "id" : 3,
    "name" : "Гель для вмивання для проблемної шкіри",
    "price" : 590,
    "image" : "../assets/img/katalog3.png",
    "category" : "Гель для вмивання",
    "description" : "Lorem ipsum dolor sit amet, consectetur adipiscing elit, sed do eiusmod tempor incididunt ut labore et dolore magna aliqua. Ut enim ad minim veniam, quis nostrud exercitation ullamco laboris nisi ut aliquip ex ea commodo consequat. Duis aute irure dolor in reprehenderit in voluptate velit esse cillum dolore eu fugiat nulla pariatur. Excepteur sint occaecat cupidatat non proident, sunt in culpa qui officia deserunt mollit anim id est laborum"

},
{
    "id" : 4,
    "name" : "Зволожуюча сироватка для нормальної шкіри",
    "price" : 480,
    "image" :"../assets/img/katalog4.png",
    "category" : "Сироватка для обличчя",
    "description" : "Lorem ipsum dolor sit amet, laboris nisi ut aliquip ex ea commodo consequat. Duis aute irure dolor in reprehenderit in voluptate velit esse cillum dolore eu fugiat nulla pariatur. Excepteur sint occaecat cupidatat non proident, sunt in culpa qui officia deserunt mollit anim id est laborum"

},
{
    "id" : 5,
    "name" : "Зволожуючий крем для сухої шкіри",
    "price" : 830,
    "image" : "../assets/img/katalog5.png",
    "category" : "Крем для обличчя",
    "description" : "Lorem ipsum dolor sit amet, consectetur adipiscing elit, sed do eiusmod tempor incididunt ut labore et dolore magna aliqua. Ut enim ad minim veniam, quis nostrud exercitation ullamco laboris nisi ut aliquip ex ea commodo consequat. Duis aute irure dolor in reprehenderit in voluptate velit esse cillum dolore eu fugiat nulla pariatur. Excepteur sint occaecat cupidatat non proident, sunt in culpa qui officia deserunt mollit anim id est laborum"

},
{
    "id" : 6,
    "name" : "Тонік для обличчя для нормальної шкіри",
    "price" : 450,
    "image" : "../assets/img/katalog6.png",
    "category" : "Тонік для обличчя",
    "description" : "Lorem ipsum dolor sit amet, laboris nisi ut aliquip ex ea commodo consequat. Duis aute irure dolor in reprehenderit in voluptate velit esse cillum dolore eu fugiat nulla pariatur. Excepteur sint occaecat cupidatat non proident, sunt in culpa qui officia deserunt mollit anim id est laborum"

},
{
    "id" : 7,
    "name" : "Пінка для очищення шкіри обличчя",
    "price" : 560,
    "image" : "../assets/img/katalog7.png",
    "category" : "Пінка для вмивання",
    "description" : "Lorem ipsum dolor sit amet, consectetur adipiscing elit, sed do eiusmod tempor incididunt ut labore et dolore magna aliqua. Ut enim ad minim veniam, quis nostrud exercitation ullamco laboris nisi ut aliquip ex ea commodo consequat. Duis aute irure dolor in reprehenderit in voluptate velit esse cillum dolore eu fugiat nulla pariatur. Excepteur sint occaecat cupidatat non proident, sunt in culpa qui officia deserunt mollit anim id est laborum"

},
{
    "id" : 8,
    "name" : "Набір Денний та нічний крем",
    "price" : 1230,
    "image" : "../assets/img/katalog8.png",
    "category" : "Крем для обличчя",
    "description" : "Lorem ipsum dolor sit amet,bore et dolore magna aliqua. Ut enim ad minim veniam, quis nostrud exercitation ullamco laboris nisi ut aliquip ex ea commodo consequat. Duis aute irure dolor in reprehenderit in voluptate velit esse cillum dolore eu fugiat nulla pariatur. Excepteur sint occaecat cupidatat non proident, sunt in culpa qui officia deserunt mollit anim id est laborum"

},
{
    "id" : 9,
    "name" : "Матуючий денний крем для жиної шкіри",
    "price" : 680,
    "image" : "../assets/img/katalog9.png",
    "category" : "Крем для обличчя",
    "description" : "Lorem ipsum dolor sit amet, consectetur adipiscing elit, sed do eiusmod tempor incididunt ut labore et dolore magna aliqua. Ut enim ad minim veniam, quis nostrud exercitation ullamco laboris nisi ut aliquip ex ea commodo consequat. Duis aute irure dolor in reprehenderit in voluptate velit esse cillum dolore eu fugiat nulla pariatur. Excepteur sint occaecat cupidatat non proident, sunt in culpa qui officia deserunt mollit anim id est laborum"

},
{
    "id" : 10,
    "name" : "Нічний антивіковий крем для сухої шкіри",
    "price" : 860,
    "image" : "../assets/img/katalog10.png",
    "category" : "Крем для обличчя",
    "description" : "Lorem ipsum dolor sit amet, consectetur adipiscing elit, sed do eiusmod tempor incididunt ut labore et dolore magna aliqua. Ut enim ad minim veniam, quis nostrud exercitation ullamco laboris nisi ut aliquip ex ea commodo consequat. Duis aute irure dolor in reprehenderit in voluptate velit esse cillum dolore eu fugiat nulla pariatur. Excepteur sint occaecat cupidatat non proident, sunt in culpa qui officia deserunt mollit anim id est laborum"

},
{
    "id" : 11,
    "name" : "Гель для зняття макіяжу",
    "price" : 730,
    "image" : "../assets/img/katalog11.png",
    "category" : "Гель для вмивання",
    "description" : "Lorem ipsum dolor sit amet, consectetur adipiscing elit, sed do eiusmod tempor incididunt ut labore et dolore magna aliqua. Ut enim ad minim veniam, quis nostrud exercitation ullamco laboris nisi ut aliquip ex ea commodo consequat. Duis aute irure dolor in reprehenderit in voluptate velit esse cillum dolore eu fugiat nulla pariatur. Excepteur sint occaecat cupidatat non proident, sunt in culpa qui officia deserunt mollit anim id est laborum"

},
{
    "id" : 12,
    "name" : "Антивікова сироватка для зони навколо очей",
    "price" : 900,
    "image" : "../assets/img/katalog12.png",
    "category" : "Сироватка для обличчя",
    "description" : "Lorem ipsum dolor sit amet, consectetur adipiscing elit, sed do eiusmod tempor incididunt ut labore et dolore magna aliqua. Ut enim ad minim veniam, quis nostrud exercitation ullamco laboris nisi ut aliquip ex ea commodo consequat. Duis aute irure dolor in reprehenderit in voluptate velit esse cillum dolore eu fugiat nulla pariatur. Excepteur sint occaecat cupidatat non proident, sunt in culpa qui officia deserunt mollit anim id est laborum"

},
{
    "id" : 13,
    "name" : "Лосьон для нормальної та комбінованої шкіри",
    "price" : 1050,
    "image" : "../assets/img/katalog13.png",
    "category" : "Сироватка для обличчя",
    "description" : "Lorem ipsum dolor sit amet, consectetur adipiscing elit, sed do eiusmod tempor incididunt ut labore et dolore magna aliqua. Ut enim ad minim veniam, quis nostrud exercitation ullamco laboris nisi ut aliquip ex ea commodo consequat. Duis aute irure dolor in reprehenderit in voluptate velit esse cillum dolore eu fugiat nulla pariatur. Excepteur sint occaecat cupidatat non proident, sunt in culpa qui officia deserunt mollit anim id est laborum"

},
{
    "id" : 14,
    "name" : "Скраб для чутливої шкіри",
    "price" : 890,
    "image" : "../assets/img/katalog14.png",
    "category" : "Маска для обличчя",
    "description" : "Lorem ipsum dolor sit amet, consectetur adipiscing elit, sed do eiusmod tempor incididunt ut labore et dolore magna aliqua. Ut enim ad minim veniam, quis nostrud exercitation ullamco laboris nisi ut aliquip ex ea commodo consequat. Duis aute irure dolor in reprehenderit in voluptate velit esse cillum dolore eu fugiat nulla pariatur. Excepteur sint occaecat cupidatat non proident, sunt in culpa qui officia deserunt mollit anim id est laborum"

},
{
    "id" : 15,
    "name" : "Маска для обличчя",
    "price" : 890,
    "image" : "../assets/img/katalog15.png",
    "category" : "Маска для обличчя",
    "description" : "Lorem ipsum dolor sit amet, laboris nisi ut aliquip ex ea commodo consequat. Duis aute irure dolor in reprehenderit in voluptate velit esse cillum dolore eu fugiat nulla pariatur. Excepteur sint occaecat cupidatat non proident, sunt in culpa qui officia deserunt mollit anim id est laborum"

},
{
    "id" : 16,
    "name" : "Пінка для очищення шкіри обличчя",
    "price" : 550,
    "image" : "../assets/img/katalog1.png",
    "category" : "Пінка для вмивання",
    "description" : "Lorem ipsum dolor sit amet, laboris nisi ut aliquip ex ea commodo consequat. Duis aute irure dolor in reprehenderit in voluptate velit esse cillum dolore eu fugiat nulla pariatur. Excepteur sint occaecat cupidatat non proident, sunt in culpa qui officia deserunt mollit anim id est laborum"

},
{
    "id" : 17,
    "name" : "Флюїд для обличчя для сухої шкіри",
    "price" : 670,
    "image" : "../assets/img/katalog12.png",
    "category" : "Тонік для обличчя",
    "description" : "Lorem ipsum dolor sit amet, laboris nisi ut aliquip ex ea commodo consequat. Duis aute irure dolor in reprehenderit in voluptate velit esse cillum dolore eu fugiat nulla pariatur. Excepteur sint occaecat cupidatat non proident, sunt in culpa qui officia deserunt mollit anim id est laborum"

}
    ],

    "user" : [
        {
            "id" : 1,
            "name" : "vasya"
        }
    ]
}
    
    
   


