<svg width="12" height="7" viewBox="0 0 12 7" fill="none" xmlns="http://www.w3.org/2000/svg">
<path fill-rule="evenodd" clip-rule="evenodd" d="M5.99973 6.80038L0.959414 0.499994L11.04 0.499994L5.99973 6.80038ZM8.95941 1.49999L3.04004 1.49999L5.99973 5.1996L8.95941 1.49999Z" fill="#4B6049"/>
</svg>
